…
select ahrf variables

Explore variables

read_csv("./data/ahrf_variables.csv") %>% 
  filter(str_detect(label, "Code") == FALSE) %>% 
  filter(str_detect(label, "M.D.") == F) %>% 
  filter(str_detect(label, "MD") == F) 

## Parsed with column specification:
## cols(
##   label = col_character()
## )

## # A tibble: 6,358 x 1
##    label                     
##    <chr>                     
##  1 Blank                     
##  2 Entity of File            
##  3 Secondary Entity Of File  
##  4 Date of File              
##  5 Date of Creation          
##  6 File Length               
##  7 State Name                
##  8 State Name Abbreviation   
##  9 County Name               
## 10 County Name w/State Abbrev
## # ... with 6,348 more rows

# Screen for variable names of interest
read_csv("./data/ahrf_variables.csv") %>%
  filter(str_detect(label, "Code") == FALSE) %>% 
  filter(str_detect(label, "File") == FALSE) %>% 
  filter(str_detect(label, "Name") == FALSE) %>% 
  mutate(truncated = str_trunc(label, 15)) %>%
  group_by(truncated) %>% nest # %>%  View

## Parsed with column specification:
## cols(
##   label = col_character()
## )

## # A tibble: 973 x 2
##    truncated       data             
##    <chr>           <list>           
##  1 Blank           <tibble [1 × 1]> 
##  2 Date of Crea... <tibble [1 × 1]> 
##  3 CBSA County ... <tibble [1 × 1]> 
##  4 Contiguous C... <tibble [14 × 1]>
##  5 Phys,Primary... <tibble [12 × 1]>
##  6 MD's,Primary... <tibble [12 × 1]>
##  7 DO's,Primary... <tibble [12 × 1]>
##  8 Tot Active M... <tibble [3 × 1]> 
##  9 Total Active... <tibble [22 × 1]>
## 10 Total M.D.'s... <tibble [35 × 1]>
## # ... with 963 more rows
…
