association_demo_registration
…
organ_df_sep = 
  organ %>% 
  group_by(county, year) %>% 
  arrange(county, date) %>% 
  mutate(prop_reg_enroll = registry_enrollments / population_18_estimate) #%>% 
 # filter(month == 9) 
 
organ_df_sep %>% 
  ggplot(aes(x = year, y = prop_reg_enroll, group = county, color = county)) +
  geom_line()

organ_2018_sep

## # A tibble: 62 x 13
##    pop_2012 chart_month county eligible_popula location month opo  
##       <int> <chr>       <chr>             <dbl> <chr>    <int> <chr>
##  1   309612 9 (Sept)    Albany             40.8 (42.678     9 Cent
##  2    46894 9 (Sept)    Alleg             45.1 (42.226     9 UNYTS
##  3  1471160 9 (Sept)    Bronx              20.4 (40.855     9 New 
##  4   193639 9 (Sept)    Broome             43.6 (42.122     9 Cent
##  5    77348 9 (Sept)    Catta             51.6 (42.224     9 UNYTS
##  6    77603 9 (Sept)    Cayuga             43.9 (42.940     9 Fing
##  7   129046 9 (Sept)    Chaut             48.2 (42.246     9 UNYTS
##  8    85557 9 (Sept)    Chemu             51.8 (42.116     9 Fing
##  9    47863 9 (Sept)    Chena             42.9 (42.481     9 Fing
## 10    80980 9 (Sept)    Clint             44.6 (44.731     9 Cent
## # ... with 52 more rows, and 6 more variables:
## #   population_18_estimate <int>, registry_enrollments <int>, year <int>,
## #   dummy_day <chr>, date <date>, reg_rate <dbl>
…
